{
  "project_info": {
    "project_number": "541152978878",
    "firebase_url": "https://myappfirebase-8b752.firebaseio.com",
    "project_id": "myappfirebase-8b752",
    "storage_bucket": "myappfirebase-8b752.appspot.com"
  },
  "client": [
    {
      "client_info": {
        "mobilesdk_app_id": "1:541152978878:android:fc70063c476ad83f",
        "android_client_info": {
          "package_name": "com.example.firebase_app"
        }
      },
      "oauth_client": [
        {
          "client_id": "541152978878-qt9va2ft2liivl7bf815v5cujfhlhqn9.apps.googleusercontent.com",
          "client_type": 3
        }
      ],
      "api_key": [
        {
          "current_key": "AIzaSyCwT9kgXd4HRdbwL2u_6zPyusq5EaM0FzA"
        }
      ],
      "services": {
        "appinvite_service": {
          "other_platform_oauth_client": [
            {
              "client_id": "541152978878-qt9va2ft2liivl7bf815v5cujfhlhqn9.apps.googleusercontent.com",
              "client_type": 3
            }
          ]
        }
      }
    }
  ],
  "configuration_version": "1"
}